<?xml version="1.0" encoding="utf-8"?>
<!-- Generator: Adobe Illustrator 19.2.1, SVG Export Plug-In . SVG Version: 6.00 Build 0)  -->
<svg version="1.1" id="Capa_1" xmlns="http://www.w3.org/2000/svg" xmlns:xlink="http://www.w3.org/1999/xlink" x="0px" y="0px"
	 viewBox="0 0 15 15" style="enable-background:new 0 0 15 15;" xml:space="preserve">
<style type="text/css">
	.st0{fill:#199948;}
</style>
<g>
	<g>
		<g>
			<path class="st0" d="M5.2,2.1h0.4c0,0.1,0,0.1,0,0.2c0,1.1,0.9,1.9,1.9,1.9c1.1,0,1.9-0.9,1.9-1.9c0-0.1,0-0.3,0-0.4L10,0.3
				c0,0,0-0.1,0-0.1c0,0-0.1-0.1-0.1-0.1H5.3c-0.1,0-0.1,0-0.1,0.1c0,0,0,0.1,0,0.1l0.4,1.2L5.1,1.8C5,1.9,5,1.9,5,2
				C5,2.1,5.1,2.1,5.2,2.1z"/>
			<path class="st0" d="M5.3,4.5C5.2,4.5,5,4.5,4.9,4.7C4.7,4.8,4.7,5,4.7,5.2l0.3,4c0,0.1,0.1,0.3,0.1,0.4l3.7-5.1H5.3L5.3,4.5z"/>
			<path class="st0" d="M10.1,4.7C10.1,4.6,10,4.5,9.9,4.5l-4.1,5.6l0.1,0.1v4c0,0.4,0.3,0.7,0.7,0.7h0.3c0.3,0,0.6-0.2,0.6-0.5
				c0.1,0.3,0.3,0.5,0.6,0.5h0.3c0.4,0,0.7-0.3,0.7-0.7v-4l0.7-0.6C9.9,9.5,10,9.3,10,9.2l0.3-4C10.3,5,10.3,4.8,10.1,4.7z M8.1,9.5
				H6.9V9h1.1V9.5z"/>
		</g>
	</g>
</g>
</svg>
