<?xml version="1.0" encoding="utf-8"?>
<!-- Generator: Adobe Illustrator 19.2.1, SVG Export Plug-In . SVG Version: 6.00 Build 0)  -->
<svg version="1.1" id="Capa_1" xmlns="http://www.w3.org/2000/svg" xmlns:xlink="http://www.w3.org/1999/xlink" x="0px" y="0px"
	 viewBox="0 0 15 15" style="enable-background:new 0 0 15 15;" xml:space="preserve">
<style type="text/css">
	.st0{fill:#199948;}
</style>
<path class="st0" d="M14.1,4.8H8.9L8.1,1.1H0.9C0.4,1.1,0,1.5,0,1.9v7.4c0,0.5,0.4,0.9,0.9,0.9h5.2l0.9,3.7h7.2
	c0.5,0,0.9-0.4,0.9-0.9V5.7C15,5.2,14.6,4.8,14.1,4.8z M1,9.2V2.1h6.3l1.6,7.1H1z M7.1,10.2H9l-1.4,2L7.1,10.2z M14,12.9H8.3
	l1.1-1.5l0.2,0.3c0.6-0.4,1.2-0.9,1.6-1.3l1.2,1.3l0.5-0.5l-1.3-1.3c0.6-0.8,0.8-1.6,0.9-2h0.8V7h-1.8V6.6h-0.7V7H9.4L9.1,5.8H14
	L14,12.9L14,12.9z M10.2,10.2L10.2,10.2L9.9,9.1l0.6,0.6C10.4,9.9,10.3,10.1,10.2,10.2L10.2,10.2L10.2,10.2z M10.1,8.4L9.8,8.7
	L9.6,7.7h2.1c-0.1,0.4-0.3,0.9-0.7,1.5L10.1,8.4z M4.5,5.2h2.4v0.5c0,1.3-1.1,2.4-2.4,2.4S2,7,2,5.6s1.1-2.4,2.4-2.4
	c0.5,0,1.1,0.2,1.5,0.5L5.3,4.5C5.1,4.3,4.8,4.2,4.5,4.2C3.7,4.2,3,4.8,3,5.6c0,0.8,0.7,1.4,1.4,1.4c0.6,0,1.2-0.4,1.4-1H4.5V5.2z"
	/>
</svg>
