<?xml version="1.0" encoding="utf-8"?>
<!-- Generator: Adobe Illustrator 19.2.1, SVG Export Plug-In . SVG Version: 6.00 Build 0)  -->
<svg version="1.1" id="Layer_1" xmlns="http://www.w3.org/2000/svg" xmlns:xlink="http://www.w3.org/1999/xlink" x="0px" y="0px"
	 viewBox="0 0 15 15" style="enable-background:new 0 0 15 15;" xml:space="preserve">
<style type="text/css">
	.st0{fill:#199948;}
</style>
<g>
	<g>
		<path class="st0" d="M13.2,4.2V1.8c0-0.3-0.1-0.5-0.4-0.6c-0.2-0.1-0.5-0.1-0.7,0c-2.2,1.2-4.7,2-7.2,2.2c0,0-2.3,0-2.3,0
			c-0.6,0-1.1,0.4-1.1,1H0.9C0.4,4.3,0,4.7,0,5.2v2.1c0,0.5,0.4,0.9,0.9,0.9h0.5c0,0.4,0.3,0.7,0.7,0.9l1.7,4.6
			c0.1,0.3,0.4,0.5,0.7,0.5h1.7c0.2,0,0.5-0.1,0.6-0.3c0.1-0.2,0.2-0.4,0.1-0.7l-1.4-4c2.4,0.2,4.6,1,6.7,2.1
			c0.1,0.1,0.2,0.1,0.4,0.1c0.1,0,0.3,0,0.4-0.1c0.2-0.1,0.4-0.4,0.4-0.6V8.4c1-0.1,1.8-1,1.8-2.1C15,5.2,14.2,4.3,13.2,4.2z
			 M1.4,7.5H0.9c-0.1,0-0.2-0.1-0.2-0.2V5.2C0.7,5.1,0.8,5,0.9,5h0.5V7.5z M2.4,8.5C2.2,8.4,2.1,8.3,2.1,8.1V4.4h0
			C2.1,4.2,2.3,4,2.5,4h2v4.5c0,0-2,0-2,0C2.4,8.5,2.4,8.5,2.4,8.5z M6.2,13.5C6.2,13.5,6.2,13.5,6.2,13.5
			C6.2,13.6,6.1,13.6,6.2,13.5l-1.7,0c0,0,0,0,0,0L2.9,9.2h1.7L6.2,13.5z M12.4,10.8C12.4,10.8,12.4,10.8,12.4,10.8
			C12.4,10.8,12.4,10.8,12.4,10.8c-2.3-1.2-4.7-2-7.2-2.2V4c2.5-0.2,5-1,7.2-2.2c0,0,0,0,0,0c0,0,0,0,0,0V10.8z M13.2,7.6V4.9
			c0.6,0.1,1.1,0.7,1.1,1.4C14.3,6.9,13.8,7.5,13.2,7.6z"/>
	</g>
</g>
</svg>
