<?xml version="1.0" encoding="utf-8"?>
<!-- Generator: Adobe Illustrator 19.2.1, SVG Export Plug-In . SVG Version: 6.00 Build 0)  -->
<svg version="1.1" id="Layer_1" xmlns="http://www.w3.org/2000/svg" xmlns:xlink="http://www.w3.org/1999/xlink" x="0px" y="0px"
	 viewBox="0 0 15 15" style="enable-background:new 0 0 15 15;" xml:space="preserve">
<style type="text/css">
	.st0{fill:#199948;}
</style>
<g>
	<g>
		<g>
			<path class="st0" d="M14.7,0.8c-0.4-0.4-1.2-0.2-2.6,0.7c-1.2,0.8-2.6,2-3.9,3.3c-2,2-3.6,4-4.1,5.3c-0.1,0-0.2-0.1-0.3-0.1
				c-0.5-0.1-1.1,0-1.6,0.4c-0.7,0.5-0.9,1.2-0.9,1.3c-0.1,0.5-0.4,1-0.8,1.5c-0.1,0.1-0.1,0.3,0,0.5c0.5,0.4,1.1,0.6,1.7,0.6
				c0.6,0,1.2-0.2,1.8-0.6c0.3-0.2,0.5-0.4,0.5-0.4c0.5-0.5,0.7-1.2,0.6-1.8c1.2-0.4,3.3-2,5.4-4.2c1.4-1.4,2.6-2.8,3.3-3.9
				C14.8,2.1,15.1,1.2,14.7,0.8z M4.1,12.9c0,0-0.2,0.2-0.4,0.3c-0.8,0.6-1.7,0.6-2.4,0.2c0.3-0.4,0.6-1,0.7-1.5v0c0,0,0,0,0,0
				c0,0,0.1-0.5,0.6-0.9c0.3-0.2,0.7-0.3,1.1-0.3c0.3,0.1,0.5,0.2,0.7,0.5C4.6,11.7,4.5,12.4,4.1,12.9z M4.9,10.9
				c0,0-0.1-0.2-0.3-0.4c0.2-0.4,0.5-1,1-1.7l1.1,1.1C5.9,10.4,5.3,10.8,4.9,10.9z M7.2,9.5L6,8.3C6.2,8,6.4,7.7,6.7,7.5L8,8.8
				C7.8,9,7.5,9.3,7.2,9.5z M13.3,3.2c-0.8,1.1-1.9,2.4-3.2,3.7C9.6,7.4,9,7.9,8.5,8.4L7.1,6.9c0.4-0.5,0.9-1,1.5-1.5
				c1.3-1.3,2.6-2.4,3.7-3.2c1.4-0.9,1.8-0.9,1.9-0.9C14.2,1.4,14.2,1.9,13.3,3.2z"/>
		</g>
	</g>
	<g>
		<g>
			<path class="st0" d="M3.8,12c-0.2-0.1-0.4,0-0.5,0.1c0,0,0,0,0,0c0,0-0.1,0.1-0.2,0.2c-0.1,0.1-0.3,0.2-0.4,0.2
				c-0.2,0-0.3,0.2-0.2,0.4c0,0.2,0.2,0.3,0.3,0.3c0,0,0.1,0,0.1,0c0.2-0.1,0.4-0.2,0.6-0.3c0.1-0.1,0.3-0.3,0.3-0.3
				c0.1-0.1,0.1-0.1,0.1-0.2C4,12.3,3.9,12.1,3.8,12z"/>
		</g>
	</g>
</g>
</svg>
